{
  "_fv": 5,
  "_type": "gun",
  "definition": {
    "renderType": 0,
    "texture": "wand",
    "customModelName": "Normal",
    "name": "Expulso",
    "creativeTab": {
      "value": "No creative tab entry"
    },
    "stackSize": 1,
    "ammoItem": {
      "value": "CUSTOM:Bullet"
    },
    "shootConstantly": false,
    "usageCount": 100000,
    "actionSound": {
      "value": "CUSTOM:spell_cast"
    },
    "hasGlow": false,
    "enableMeleeDamage": false,
    "damageVsEntity": 5.0,
    "bulletPower": 3.0,
    "bulletDamage": 2.0,
    "bulletKnockback": 1,
    "bulletParticles": false,
    "bulletIgnitesFire": false,
    "bulletItemTexture": {
      "value": "CUSTOM:Bullet"
    },
    "bulletModel": "Default",
    "customBulletModelTexture": "",
    "onBulletHitsBlock": {
      "name": "ExpulsoBulletHitsBlock"
    },
    "onBulletHitsEntity": {
      "name": "ExpulsoBulletHitsLivingEntity"
    },
    "onRangedItemUsed": {
      "name": "ExpulsoRangedItemUsed"
    }
  }
}