{
  "_fv": 5,
  "_type": "procedure",
  "definition": {
    "procedurexml": "<xml xmlns=\"https://developers.google.com/blockly/xml\"><block type=\"event_trigger\" deletable=\"false\" x=\"304\" y=\"116\"><field name=\"trigger\">Entity joins the world</field><next><block type=\"entity_add_item\"><value name=\"amount\"><block type=\"math_number\"><field name=\"NUM\">1</field></block></value><value name=\"item\"><block type=\"mcitem_all\"><field name=\"value\">CUSTOM:Wizardbook</field></block></value><next><block type=\"controls_if\"><value name=\"IF0\"><block type=\"logic_binary_ops\"><field name=\"OP\">AND</field><value name=\"A\"><block type=\"math_binary_ops\"><field name=\"OP\">EQ</field><value name=\"A\"><block type=\"variables_get_number\"><field name=\"VAR\">global:wizard_check</field></block></value><value name=\"B\"><block type=\"math_number\"><field name=\"NUM\">1</field></block></value></block></value><value name=\"B\"><block type=\"logic_negate\"><value name=\"BOOL\"><block type=\"entity_has_item_inventory\"><value name=\"item\"><block type=\"mcitem_all\"><field name=\"value\">CUSTOM:Bullet2</field></block></value></block></value></block></value></block></value><statement name=\"DO0\"><block type=\"entity_add_item\"><value name=\"amount\"><block type=\"math_number\"><field name=\"NUM\">1</field></block></value><value name=\"item\"><block type=\"mcitem_all\"><field name=\"value\">CUSTOM:Bullet2</field></block></value></block></statement><next><block type=\"controls_if\"><value name=\"IF0\"><block type=\"logic_negate\"><value name=\"BOOL\"><block type=\"entity_has_item_inventory\"><value name=\"item\"><block type=\"mcitem_all\"><field name=\"value\">CUSTOM:Bullet2</field></block></value></block></value></block></value><statement name=\"DO0\"><block type=\"entity_add_item\"><value name=\"amount\"><block type=\"math_number\"><field name=\"NUM\">1</field></block></value><value name=\"item\"><block type=\"mcitem_all\"><field name=\"value\">CUSTOM:Bullet2</field></block></value></block></statement></block></next></block></next></block></next></block></xml>"
  }
}