{
  "_fv": 5,
  "_type": "procedure",
  "definition": {
    "procedurexml": "<xml xmlns=\"https://developers.google.com/blockly/xml\"><block type=\"event_trigger\" deletable=\"false\" x=\"40\" y=\"40\"><field name=\"trigger\">No additional trigger</field><next><block type=\"move_entity\"><value name=\"x\"><block type=\"entity_lookpos_x\"><value name=\"maxdistance\"><block type=\"math_number\"><field name=\"NUM\">100</field></block></value></block></value><value name=\"y\"><block type=\"entity_lookpos_y\"><value name=\"maxdistance\"><block type=\"math_number\"><field name=\"NUM\">100</field></block></value></block></value><value name=\"z\"><block type=\"entity_lookpos_z\"><value name=\"maxdistance\"><block type=\"math_number\"><field name=\"NUM\">100</field></block></value></block></value></block></next></block><block type=\"coord_x\" x=\"256\" y=\"144\"/><block type=\"coord_y\" x=\"621\" y=\"145\"/><block type=\"coord_z\" x=\"989\" y=\"141\"/></xml>"
  }
}