{
  "_fv": 5,
  "_type": "procedure",
  "definition": {
    "procedurexml": "<xml xmlns=\"https://developers.google.com/blockly/xml\"><block type=\"event_trigger\" deletable=\"false\" x=\"566\" y=\"48\"><field name=\"trigger\">No additional trigger</field><next><block type=\"entity_swing_mainhand\"><next><block type=\"controls_if\"><value name=\"IF0\"><block type=\"entity_issneaking\"/></value><statement name=\"DO0\"><block type=\"entity_remove_item\"><value name=\"amount\"><block type=\"math_number\"><field name=\"NUM\">1</field></block></value><value name=\"item\"><block type=\"mcitem_all\"><field name=\"value\">CUSTOM:Wand</field></block></value><next><block type=\"entity_add_item\"><value name=\"amount\"><block type=\"math_number\"><field name=\"NUM\">1</field></block></value><value name=\"item\"><block type=\"mcitem_all\"><field name=\"value\">CUSTOM:Wandlevicorpus</field></block></value></block></next></block></statement></block></next></block></next></block></xml>"
  }
}