{
  "_fv": 5,
  "_type": "gui",
  "definition": {
    "type": 0,
    "width": 352,
    "height": 332,
    "renderBgLayer": true,
    "containerBlock": "<none>",
    "components": [
      {
        "type": "label",
        "data": {
          "text": "The guid to be a wizard",
          "color": {
            "value": -16776961,
            "falpha": 0.0
          },
          "name": "The guid to be a wizard",
          "x": 307,
          "y": 91
        }
      },
      {
        "type": "button",
        "data": {
          "text": "be a wizard",
          "onClick": {
            "name": "Beawizardbutton"
          },
          "width": 220,
          "height": 40,
          "name": "be a wizard",
          "x": 257,
          "y": 359
        }
      }
    ],
    "inventories": []
  }
}